hp2-p2
…
devtools::install_github("lbenz730/ncaahoopR")

Using GitHub PAT from the git credential store.

Skipping install of 'ncaahoopR' from a github remote, the SHA1 (351b174b) has not changed since last install.
  Use `force = TRUE` to force installation

library(ncaahoopR)

Team Results

team_results

# A tibble: 236 × 20
   TEAMID TEAM   PAKE PAKERANK  PASE PASERANK GAMES     W     L WINPERCENT   R64
    <dbl> <chr> <dbl>    <dbl> <dbl>    <dbl> <dbl> <dbl> <dbl>      <dbl> <dbl>
 1      1 Abil…   0.7       45   0.7       52     3     1     2      0.333     2
 2      2 Akron  -0.9      179  -1.1      187     4     0     4      0         4
 3      3 Alab…  -2.1      211  -2.9      220    10     5     5      0.5       5
 4      4 Alba…  -0.4      147  -0.3      138     3     0     3      0         3
 5      6 Amer…  -0.5      160  -0.4      150     3     0     3      0         3
 6      8 Ariz…  -1.7      206  -2.5      216    28    17    11      0.607    11
 7      9 Ariz…  -2        209  -1.9      206     5     1     4      0.2       4
 8     10 Arka…   4.3       11   3.5       16    18    11     7      0.611     7
 9     11 Arka…   0         76   0         78     1     0     1      0         1
10     12 Aubu…   0.6       53   1.4       30    11     7     4      0.636     4
# ℹ 226 more rows
# ℹ 9 more variables: R32 <dbl>, S16 <dbl>, E8 <dbl>, F4 <dbl>, F2 <dbl>,
#   CHAMP <dbl>, TOP2 <dbl>, F4PERCENT <chr>, CHAMPPERCENT <chr>

Public Picks

public_picks

# A tibble: 64 × 9
    YEAR TEAMNO TEAM                  R64    R32    S16    E8     F4     FINALS
   <dbl>  <dbl> <chr>                 <chr>  <chr>  <chr>  <chr>  <chr>  <chr> 
 1  2024   1079 Akron                 7.16%  2.18%  0.63%  0.22%  0.10%  0.04% 
 2  2024   1078 Alabama               87.11% 55.73% 13.55% 7.31%  2.89%  1.10% 
 3  2024   1077 Arizona               95.19% 81.05% 52.02% 22.26% 10.05% 4.06% 
 4  2024   1076 Auburn                90.17% 59.97% 15.93% 7.95%  3.64%  1.34% 
 5  2024   1075 Baylor                92.34% 71.07% 33.68% 12.15% 4.35%  1.83% 
 6  2024   1073 BYU                   75.17% 21.70% 6.92%  1.64%  0.64%  0.32% 
 7  2024   1072 Clemson               51.46% 10.43% 3.16%  0.79%  0.30%  0.16% 
 8  2024   1071 Colgate               6.38%  1.89%  0.54%  0.20%  0.09%  0.04% 
 9  2024   1070 College of Charleston 11.57% 2.72%  0.68%  0.24%  0.10%  0.05% 
10  2024   1069 Colorado              22.97% 3.66%  0.90%  0.35%  0.11%  0.05% 
# ℹ 54 more rows

Data set 20o

PAKE: Performance against Kenpom Efficiency (To learn more about Kenpom Efficiency, click here)

PASE: Performance against seed expectations

Here are the teams sorted by PAKE — aka, which teams perform the best compared to how their offensive/defensive statistics forecast them to perform.

arrange(team_results, desc(PAKE))

# A tibble: 236 × 20
   TEAMID TEAM   PAKE PAKERANK  PASE PASERANK GAMES     W     L WINPERCENT   R64
    <dbl> <chr> <dbl>    <dbl> <dbl>    <dbl> <dbl> <dbl> <dbl>      <dbl> <dbl>
 1    135 Nort…  12          1   9.8        2    50    39    11      0.78     13
 2     40 Conn…   8.6        2  10.6        1    29    23     6      0.793     9
 3    115 Mich…   8          3   9.2        3    45    31    14      0.689    14
 4     24 Butl…   7          4   8.7        4    26    17     9      0.654     9
 5    114 Mich…   7          4   7.6        6    35    24    11      0.686    11
 6     90 Kent…   6.9        6   8.5        5    43    32    11      0.744    12
 7    196 Syra…   5.6        7   4.7       10    31    21    10      0.677    10
 8    157 Oreg…   5.2        8   5.7        8    23    15     8      0.652     8
 9    228 Vill…   4.8        9   4         11    40    29    11      0.725    13
10    212 UCLA    4.5       10   5.1        9    30    20    10      0.667    10
# ℹ 226 more rows
# ℹ 9 more variables: R32 <dbl>, S16 <dbl>, E8 <dbl>, F4 <dbl>, F2 <dbl>,
#   CHAMP <dbl>, TOP2 <dbl>, F4PERCENT <chr>, CHAMPPERCENT <chr>

That’s North Carolina (UNC), Connecticut, Michigan State, Butler and Michigan in the top 5.

Now here are the teams sorted by PASE — aka, which teams perform the best compared to how they are seeded in the NCAA Tournament

arrange(team_results, desc(PASE))

# A tibble: 236 × 20
   TEAMID TEAM   PAKE PAKERANK  PASE PASERANK GAMES     W     L WINPERCENT   R64
    <dbl> <chr> <dbl>    <dbl> <dbl>    <dbl> <dbl> <dbl> <dbl>      <dbl> <dbl>
 1     40 Conn…   8.6        2  10.6        1    29    23     6      0.793     9
 2    135 Nort…  12          1   9.8        2    50    39    11      0.78     13
 3    115 Mich…   8          3   9.2        3    45    31    14      0.689    14
 4     24 Butl…   7          4   8.7        4    26    17     9      0.654     9
 5     90 Kent…   6.9        6   8.5        5    43    32    11      0.744    12
 6    114 Mich…   7          4   7.6        6    35    24    11      0.686    11
 7     55 Flor…   4.3       11   5.9        7    28    19     9      0.679     9
 8    157 Oreg…   5.2        8   5.7        8    23    15     8      0.652     8
 9    212 UCLA    4.5       10   5.1        9    30    20    10      0.667    10
10    196 Syra…   5.6        7   4.7       10    31    21    10      0.677    10
# ℹ 226 more rows
# ℹ 9 more variables: R32 <dbl>, S16 <dbl>, E8 <dbl>, F4 <dbl>, F2 <dbl>,
#   CHAMP <dbl>, TOP2 <dbl>, F4PERCENT <chr>, CHAMPPERCENT <chr>
…
It seems that while neither PASE nor PAKE correlates significantly more than the other to winning percentage, both a higher PAKE and PASE is related to a higher winning percentage.

Conference stuff

team_results_colors |>
  group_by(conference) |>
  summarise(games_in_tournament = mean(GAMES),
            winning_percent = mean(WINPERCENT),
            final_fours = mean(F4)) |>
  arrange(desc(games_in_tournament))

# A tibble: 33 × 4
   conference games_in_tournament winning_percent final_fours
   <chr>                    <dbl>           <dbl>       <dbl>
 1 ACC                      19.6            0.487       1    
 2 Big East                 19.5            0.481       0.75 
 3 Big 12                   18.9            0.516       0.643
 4 Big 10                   17              0.469       0.643
 5 SEC                      14.4            0.483       0.538
 6 WCC                      12.8            0.295       0.5  
 7 Pac 12                   11.6            0.521       0.273
 8 AAC                       6.62           0.251       0.25 
 9 A-10                      6              0.351       0.154
10 MWC                       5.89           0.186       0.111
# ℹ 23 more rows

Public Pick data

This is data for this past March Madness tournament, and what teams were picked at which percentages to advance to which rounds.

ncaapicks2024 <- full_join(team_results_colors,public_picks,by="TEAM")

#Remove teams that were not in the tourney this year

ncaapicks2024 <- ncaapicks2024[!is.na(ncaapicks2024$TEAMNO),]
ncaapicks2024

# A tibble: 64 × 38
   TEAMID TEAM   PAKE PAKERANK  PASE PASERANK GAMES     W     L WINPERCENT R64.x
    <dbl> <chr> <dbl>    <dbl> <dbl>    <dbl> <dbl> <dbl> <dbl>      <dbl> <dbl>
 1      2 Akron  -0.9      179  -1.1      187     4     0     4      0         4
 2      3 Alab…  -2.1      211  -2.9      220    10     5     5      0.5       5
 3      8 Ariz…  -1.7      206  -2.5      216    28    17    11      0.607    11
 4     12 Aubu…   0.6       53   1.4       30    11     7     4      0.636     4
 5     14 Bayl…   0.9       41  -0.3      138    29    19    10      0.655    11
 6     25 BYU    -3.4      225  -3        221    10     3     7      0.3       7
 7     33 Clem…  -4.2      231  -3.5      224     8     2     6      0.25      6
 8     36 Colg…  -0.9      179  -0.5      159     4     0     4      0         4
 9     37 Coll…  -0.6      165  -0.8      172     2     0     2      0         2
10     38 Colo…  -1.5      200  -1.9      206     7     2     5      0.286     5
# ℹ 54 more rows
# ℹ 27 more variables: R32.x <dbl>, S16.x <dbl>, E8.x <dbl>, F4.x <dbl>,
#   F2 <dbl>, CHAMP <dbl>, TOP2 <dbl>, F4PERCENT <chr>, CHAMPPERCENT <chr>,
#   espn_name <chr>, primary_color <chr>, secondary_color <chr>,
#   tertiary_color <chr>, color_4 <chr>, color_5 <chr>, color_6 <chr>,
#   logo_url <chr>, color_3 <chr>, conference <chr>, YEAR <dbl>, TEAMNO <dbl>,
#   R64.y <chr>, R32.y <chr>, S16.y <chr>, E8.y <chr>, F4.y <chr>, …
…
